…
Let’s look at how the data look:

data_long

## # A tibble: 1,364,248 x 22
##     date_time_type is_weekday       date  year month         time  hour
##              <chr>      <chr>     <date> <dbl> <ord> <S4: Period> <dbl>
##  1 start_date_time    weekend 2015-05-31  2015   May    6H 54M 0S     6
##  2 start_date_time    weekend 2015-05-31  2015   May    6H 57M 0S     6
##  3 start_date_time    weekend 2015-05-31  2015   May    6H 58M 0S     6
##  4 start_date_time    weekend 2015-05-31  2015   May     7H 8M 0S     7
##  5 start_date_time    weekend 2015-05-31  2015   May    7H 15M 0S     7
##  6 start_date_time    weekend 2015-05-31  2015   May    7H 16M 0S     7
##  7 start_date_time    weekend 2015-05-31  2015   May    7H 18M 0S     7
##  8 start_date_time    weekend 2015-05-31  2015   May    7H 18M 0S     7
##  9 start_date_time    weekend 2015-05-31  2015   May    7H 20M 0S     7
## 10 start_date_time    weekend 2015-05-31  2015   May    7H 25M 0S     7
## # ... with 1,364,238 more rows, and 15 more variables: wday <ord>,
## #   yday <dbl>, mday <int>, date_time_2 <chr>, station_id_type <chr>,
## #   station_id <int>, station_name_type <chr>, station_name <chr>,
## #   trip_id <int>, bikeid <int>, tripduration <int>, usertype <chr>,
## #   id <int>, week <dbl>, trip_duration <dbl>
…
